{
  $schema: "https://docs.renovatebot.com/renovate-schema.json",
  extends: [
    "config:base",
    ":preserveSemverRanges",
    ":dependencyDashboard"
  ],

  timezone: "Europe/Berlin",
  
  rangeStrategy: "update-lockfile",
  rebaseWhen: "conflicted",
  prCreation: "immediate",

  major: {
    dependencyDashboardApproval: true,
    labels: ["renovate", "major update"]
  },

  digest: {
    automerge: true,
    gitLabAutomerge: true,
    labels: ["renovate", "digest", "automerge"]
  },

  patch: {
    automerge: true,
    gitLabAutomerge: true,
    labels: ["renovate", "patch", "automerge"]
  },

  packageRules: [
    // calm down noisy package s3 by limiting renovate runs
    {
      packagePatterns: ["software.amazon.awssdk:s3"],
      schedule: ["after 9pm on monday"]
    },
    // webpack appears to be noisy and break often after release
    {
      packagePatterns: ["webpack"],
      stabilityDays: 2
    },
    // automerge dev dependencies (minor/patch)
    {
      depTypeList: ["devDependencies"],
      matchUpdateTypes: ["minor", "patch"],
      automerge: true,
      gitLabAutomerge: true,
      labels: ["renovate", "automerge"]
    },
    // group official docker images
    {
      matchPackagePrefixes: ["docker"],
      matchDatasources: ["docker"],
      groupName: "base images: docker"
    },
    // group our docker images
    {
      matchPackagePrefixes: ["registry.gitlab.com/klimawuensche/docker-images"],
      matchDatasources: ["docker"],
      groupName: "klimawuensche images"
    }

  ],

  ignoreDeps: [
    "registry.gitlab.com/klimawuensche/website",  // We need to ignore ourselves, lest we create update loops
    "org.foundweekends.giter8:sbt-giter8-scaffold"  // this stuff seems to be broken (and not that important to keep up to date)
  ],

  docker: {
    pinDigests: true
  },

  labels: ["renovate"],
  
  enabledManagers: [
    "npm", 
    "sbt", 
    "dockerfile", 
    "gitlabci", 
    "ansible-galaxy"
  ]
}
