<svg xmlns="http://www.w3.org/2000/svg"
     xmlns:xlink="http://www.w3.org/1999/xlink"
     preserveAspectRatio="none"
     width="100%" height="100%" viewBox="0 0 229.288 203.107"><defs><filter id="a" x="0" y="0" width="229.288" height="203.107" filterUnits="userSpaceOnUse"><feOffset input="SourceAlpha"/><feGaussianBlur stdDeviation="10" result="b"/><feFlood flood-color="#22306d" flood-opacity="0.2"/><feComposite operator="in" in2="b"/><feComposite in="SourceGraphic"/></filter></defs><g transform="matrix(1, 0, 0, 1, 0, 0)" filter="url(#a)"><path d="M755.2,574.8c24.89,20.869,75.067,21.3,104.049,14.847,14.015-3.12,27.678-10.607,35.084-22.91,8.269-13.742,7.544-30.877,6.559-46.887-1.039-16.887-2.517-34.969-13.125-48.152-14.858-18.464-41.679-20.66-65.369-21.378-18.228-.551-37.447.7-54.764,6.835-34.642,12.276-40.008,47.516-32.473,79.944,2.826,12.163,7.241,24.356,15.688,33.553A46.34,46.34,0,0,0,755.2,574.8Z" transform="translate(-702.18 -420.2)" fill="#ffffff"/></g></svg>