<?xml version="1.0" encoding="UTF-8"?>
<svg preserveAspectRatio="none" width="100%" height="100%" version="1.1" viewBox="0 0 259.55 178.52" xmlns="http://www.w3.org/2000/svg">
 <defs>
  <filter id="a" x="22.211" y="0" width="257.55" height="176.52" filterUnits="userSpaceOnUse">
   <feOffset input="SourceAlpha"/>
   <feGaussianBlur result="b" stdDeviation="10"/>
   <feFlood flood-color="#22306d" flood-opacity=".2"/>
   <feComposite in2="b" operator="in" result="result1"/>
   <feComposite in="SourceGraphic" in2="result1"/>
  </filter>
 </defs>
 <g transform="translate(-399.12 -979.29)">
  <g transform="translate(377.91,980.29)" filter="url(#a)">
   <path transform="rotate(90 299.02 19.385)" d="m336.54 82.063c14.7-13.857 36.418-18.18 52.766-7.21 13.266 8.9 21.125 25.839 26.67 42.645 13.6 41.216 16.839 92.5-10.92 126.92-10.488 13-25.164 21.671-40.356 21.784-18.19 0.135-38.547-12.428-47.886-31.117-6.625-13.257-7.671-29.15-7-44.208 0.587-13.19 0.452-26.424 1.332-39.6 1.724-25.834 7.513-52.357 25.394-69.211z" fill="#ffffff"/>
  </g>
 </g>
</svg>
