<?xml version="1.0" encoding="UTF-8"?>
<svg preserveAspectRatio="none" width="100%" height="100%" version="1.1" viewBox="0 0 1161.6 389.5" xmlns="http://www.w3.org/2000/svg">
 <g transform="translate(-379 -752.55)">
  <g transform="translate(350,679.95)">
   <path transform="translate(-6037 -476.33)" d="m6070.8 738.62c-4.986 54.1-22.811 144.3 101.37 175.55 26.382 6.641 57.184 8 87.041 9.239 118.35 4.9 238.62 11.807 356.77 13.608 128.52 1.96 259.64-3.5 388.21-5.239 43.346-0.585 87.8-1.277 127.89-8.984 117.41-22.571 95.2-98.6 87.976-146.09-6.8953-45.345-13.789-90.69-20.68-136.04-1.977-13.027-4.3-26.583-18.479-37.843-11.347-9.009-29.377-15.75-48.143-21.458-113.38-34.478-242.35-24.481-370-22.74-80.763 1.1-166.82 1.389-249.62 2.133-60.44 0.544-187.95 10.464-295.96-10.291-124.93-8.3453-136.68 83.296-146.39 188.16z" fill="#22306d"/>
  </g>
 </g>
</svg>
