<?xml version="1.0" encoding="UTF-8"?>
<svg width="100%" height="100%" preserveAspectRatio="none" version="1.1" viewBox="0 0 1976.8 172.3" xmlns="http://www.w3.org/2000/svg">
 <path d="m0 172.12 1976.8 0.17735-0.1718-117.66c-31.316-16.03-74.445-27.84-126.28-31.547-90.393-6.477-175.44 19.851-263.87 24.067-103.37 4.942-200.36-14.594-295.39-29.369-100.03-15.557-204.81-21.621-310.43-15.342-28.263 1.681-56.65 3.024-84.957 4.646-219.82 12.592-439.59 25.192-659.32 37.8-77.634 4.448-169.28 12.52-236.28 31.268z" fill="#ff773a"/>
</svg>
