<svg xmlns="http://www.w3.org/2000/svg" width="30.5" height="31.105" viewBox="0 0 30.5 31.105">
    <g id="Instagram_Icon" data-name="Instagram Icon" transform="translate(-861 -1789.614)">
        <path id="Pfad_1010" data-name="Pfad 1010" d="M137.775,205.6a10.969,10.969,0,0,1,6.421-4.4,17.948,17.948,0,0,1,22.717,20.139c-.552,3.366-2.209,6.7-5.091,8.525-3.293,2.084-7.486,1.865-11.372,1.574-3.378-.253-6.932-.565-9.726-2.479a9.511,9.511,0,0,1-4.043-7.631c-.03-1.559.2-3.108.264-4.663C137.1,213.04,135.73,208.908,137.775,205.6Z" transform="translate(724.363 1589.098)" fill="#ffffff"/>
        <g id="Gruppe_300" data-name="Gruppe 300" transform="translate(120.728 1645.691)">
            <g id="Gruppe_299" data-name="Gruppe 299" transform="translate(746.399 150.912)">
                <path id="Pfad_1011" data-name="Pfad 1011" d="M772.559,157.273a1,1,0,1,0,1,1A1,1,0,0,0,772.559,157.273Z" transform="translate(-759.462 -154.215)" fill="#22306d"/>
                <path id="Pfad_1012" data-name="Pfad 1012" d="M759.8,159.952a4.218,4.218,0,1,0,4.218,4.217A4.222,4.222,0,0,0,759.8,159.952Zm0,6.919a2.7,2.7,0,1,1,2.7-2.7A2.7,2.7,0,0,1,759.8,166.871Z" transform="translate(-751.169 -155.606)" fill="#22306d"/>
                <path id="Pfad_1013" data-name="Pfad 1013" d="M758.38,168.038h-6.837a5.15,5.15,0,0,1-5.144-5.144v-6.838a5.15,5.15,0,0,1,5.144-5.144h6.837a5.15,5.15,0,0,1,5.145,5.144v6.838A5.15,5.15,0,0,1,758.38,168.038Zm-6.837-15.515a3.537,3.537,0,0,0-3.533,3.533v6.838a3.537,3.537,0,0,0,3.533,3.533h6.837a3.537,3.537,0,0,0,3.533-3.533v-6.838a3.537,3.537,0,0,0-3.533-3.533Z" transform="translate(-746.399 -150.912)" fill="#22306d"/>
            </g>
        </g>
    </g>
</svg>
