<?xml version="1.0" encoding="UTF-8"?>
<svg enable-background="new 0 0 100 100" version="1.1" viewBox="0 0 100 100" xml:space="preserve" xmlns="http://www.w3.org/2000/svg">
<style type="text/css">
	.st0{fill:#22306D;}
</style>
<path d="m10.44 51.391 0.11001 12.321 15.402-1.1001 28.713 5.9406 16.832 1.5402 18.702-5.1705-0.44004-22.002-31.027 7.4545-38.83-2.944z" fill="#e9e2d6"/><path d="m11.551 12.321-3.9604 5.9406-0.22002 16.392 47.525 1.6502 16.392 0.9901 6.3806-18.482-3.8504-6.1606-57.536-1.2101z" fill="#e9e2d6"/><path class="st0" d="m8.7 97.9c-2.3 0-4-1.7-4.6-4-0.4-1.4-0.4-2.8-0.3-4 0-6.1 0.2-12.2 0.2-18.3 0-4.7-0.5-9.3-0.5-14-0.1-2.6-0.1-5.2-0.2-7.8-0.1-3.2-0.2-6.5-0.3-9.7-0.1-3.4-0.2-6.8-0.3-10.3l-0.3-9.6c-0.1-2.5-0.1-5-0.2-7.5 0-1.4-0.1-2.8-0.1-4.2v-0.4c0-1-0.1-2.1 0.3-3.2 0.4-1.3 1.4-2.3 2.5-2.7 0.3 0 0.6-0.1 0.9-0.1 1.8 0 3.2 1.4 3.8 2.6 0.3 0.6 0.5 1.2 0.7 1.8l0.2 0.5c0.1 0.3 0.2 0.7 0.3 1h0.1c0.2 0 0.5-0.1 0.7-0.2 0.1 0 0.3-0.1 0.4-0.1 0.7-0.2 1.4-0.4 2.2-0.5 1.3-0.2 2.7-0.4 4.1-0.4 1.6 0 3.3 0.2 5.1 0.5 1 0.2 2 0.2 3.1 0.3 0.9 0 1.9 0.1 2.8 0.2 1.9 0.3 3.9 0.7 5.8 1 1.3 0.2 2.6 0.5 3.9 0.7 1.9 0.3 4 0.7 6.1 0.9 0.5 0 1 0.1 1.5 0.2 1.4 0.1 2.8 0.3 4.2 0.3 0.6 0 1.1 0 1.6-0.1 2.2-0.2 4.5-0.8 6.8-1.3 0.9-0.2 1.7-0.4 2.6-0.6l0.9-0.2c2.1-0.5 4.2-0.9 6.4-0.9 1 0 1.9 0.1 2.8 0.3 0.4 0.1 0.8 0.1 1.1 0.1h1c0.5 0 1 0 1.6 0.1 3.5 0.8 5.2 3 5.4 7.5l0.1 1.4c0.2 2.8 0.3 5.7 0.2 8.6-0.1 2.8-0.5 5.9-1.1 9.4-0.2 1-1 1.8-1.7 2.4 0.5-0.3 1.1-0.6 1.6-0.9 2.3-1.3 4.7-1.9 7.3-1.9 2.2 0 4.5 0.5 6.9 1.5 2.3 0.9 3.5 3.1 3.6 6.7 0.3 5.8-0.7 11.7-3.1 18.6-0.3 1-0.5 2.1-0.6 3.3-0.1 0.9-0.2 1.8-0.5 2.7-0.2 0.8-0.7 2.6-1.9 3.2-2 1.1-4.1 1.8-6.1 2.3-4.3 1-8.8 1.5-14.9 1.5-6 0-12-0.2-18-1.1-1.9-0.3-3.9-0.7-5.8-1.1-2.3-0.4-4.7-0.6-6.9-1.3-2.3-0.7-4.5-1.6-6.8-2.3-2.9-0.9-5.9-1.4-8.9-1.6-1.8-0.1-3.7-0.2-5.5 0.1-0.9 0.1-1.8 0.3-2.7 0.6s-1.7 0.4-2.6 0.6c-0.3 1.9-0.5 3.7-0.4 5.7 0.2 3.3 0 6.7 0.2 10 0.2 2 0.5 4 0.2 5.9s-1.1 3.8-1.7 5.6c-0.2 0.4-0.3 0.9-0.6 1.2-0.5 0.5-1.2 0.8-1.9 0.9-0.2 0.1-0.5 0.1-0.7 0.1zm14.2-40.2c0.9 0 1.8 0 2.7 0.1 5.5 0.5 10.1 3.4 15.3 5s10.6 2.3 16 2.5c8.2 0.3 16.4-0.6 24.5-1.6 1.6-0.2 3.8-0.7 4.8-2.1 0.6-0.8 0.7-1.9 0.8-2.9 0.4-3.7 0.8-7.3 0.8-11 0-0.7-0.1-1.5-0.8-1.7-0.4-0.1-0.8 0.1-1.2 0.3-1.9 1-3.8 1.9-5.6 2.9-2.6 1.4-5 3-7.8 3.9-2.9 1-5.9 1.4-8.9 1.6-5.1 0.3-10.2-0.2-15.3-0.5-5.3-0.3-10.5-0.4-15.7-1.6-2.9-0.6-5.7-1.6-8.7-1.7s-6 0.7-8.8 1.3h-0.2c-1.4 0.3-1.9 1.2-1.7 2.8 0.2 1.1 0.3 2.2 0.4 3.2 0 0.7 0.1 1 0.1 1.1 0.2 0 0.4-0.1 0.7-0.2l1-0.3c2.4-0.5 5-1 7.6-1.1zm0-15.5c2.3 0 4.7 0.2 7.2 0.6 1.1 0.2 2.2 0.3 3.4 0.5 2 0.3 4 0.5 6 0.9 1.7 0.3 3.5 0.7 5.1 1.1 2.5 0.5 5 1.1 7.5 1.4 0.7 0.1 1.4 0.1 2.2 0.1 1.4 0 2.8-0.1 4.7-0.4h0.2c2.5-0.4 5.1-0.8 7.4-1.9 1.8-0.9 3.6-1.9 5.4-3-1.7 0.6-3.3 0.9-5 0.9-0.6 0-1.2 0-1.8-0.1-0.5-0.1-1.1-0.1-1.8-0.1h-1.5s-1.1 0-1.6 0h-1c-5-0.2-10.2-0.5-15.4-0.9-0.7 0-1.4-0.1-2.2-0.1-2.9-0.2-5.9-0.4-8.9-0.8-2-0.3-4.1-0.7-6-1.1-2.3-0.5-4.7-1-7-1.3-0.5-0.1-1-0.1-1.5-0.1-1.5 0-3.1 0.2-4.6 0.5l-1.1 0.2c-0.5 0.1-0.6 0.7-0.5 1.4v1c0 1.2 0 2.3 0.1 2.8 0.4 0 0.9-0.2 1.5-0.3l0.2-0.1c2.9-0.8 5.9-1.2 9-1.2zm16.7-11.3c1.8-0.1 3.5-0.2 5.3-0.2 6.3 0.1 12.3 1.8 18.2 3.6 1.6 0.5 3.3 0.9 4.8 0.2 1.2-0.6 1.9-1.8 2.5-3 1.7-3.7 2-7.8 2-11.8 0-1.8-0.2-3.5-2.4-3.5-1.5 0-2.9 0.3-4.2 0.8-0.2 0.1-0.4 0.1-0.6 0.1-1.4 0.3-2.8 0.7-4.2 0.9-2.8 0.5-5.7 0.8-8.6 0.8-5.8 0.1-11.5-0.6-17.1-2.2-4-1.2-7.9-2.7-12.1-3-2-0.1-4 0.1-5.9 0.8-2.1 0.8-3.4 2.4-5.3 3.6-0.2 0.2-0.5 0.3-0.6 0.5-0.2 0.3-0.2 0.6-0.2 1 0.1 3.2 0.1 6.5 0.6 9.7 2.3-1.5 5.4-1.2 8-0.4 3.1 1 5.8 2 9.1 2.3 3.7 0.4 7.2 0.1 10.7-0.2z"/>
</svg>
