<svg xmlns="http://www.w3.org/2000/svg" width="44.969" height="44.969" viewBox="0 0 44.969 44.969">
  <path id="Icons-Klimawünsche_Klimawünsche_sammeln_" data-name="Icons-Klimawünsche_Klimawünsche sammeln " d="M3.913,56.707A2.887,2.887,0,0,1,1.19,54.339a6.605,6.605,0,0,1-.178-2.368c0-3.611.118-7.222.118-10.832,0-2.782-.3-5.5-.3-8.287C.776,31.313.776,29.774.717,28.235.658,26.341.6,24.387.539,22.493.48,20.481.421,18.468.362,16.4L.184,10.714C.125,9.234.125,7.754.066,6.274c0-.829-.059-1.657-.059-2.486V3.552A5.279,5.279,0,0,1,.184,1.657a2.5,2.5,0,0,1,1.48-1.6C1.842.059,2.019,0,2.2,0A2.687,2.687,0,0,1,4.446,1.539,7.905,7.905,0,0,1,4.86,2.6l.118.3a55.451,55.451,0,0,1,.645,6.073c.144,2.22.142,5.731.3,8.494.137,2.457.188,3.455.3,6.237.119,3.026-.053,6.31,0,9.148.1,5.471.339,9.433.359,9.826.118,1.953,0,3.966.118,5.919a13.906,13.906,0,0,1,.118,3.492A21.413,21.413,0,0,1,5.807,55.4a2.66,2.66,0,0,1-.355.71,2,2,0,0,1-1.125.533A1.007,1.007,0,0,1,3.913,56.707Z" transform="translate(40.098 0) rotate(45)" fill="#f6f6f6"/>
  <path id="Icons-Klimawünsche_Klimawünsche_sammeln_2" data-name="Icons-Klimawünsche_Klimawünsche sammeln " d="M3.913,0A2.887,2.887,0,0,0,1.19,2.368a6.605,6.605,0,0,0-.178,2.368c0,3.611.118,7.222.118,10.832,0,2.782-.3,5.5-.3,8.287C.776,25.394.776,26.933.717,28.472.658,30.366.6,32.319.539,34.213.48,36.226.421,38.239.362,40.31L.184,45.993c-.059,1.48-.059,2.96-.118,4.439,0,.829-.059,1.657-.059,2.486v.237a5.279,5.279,0,0,0,.178,1.894,2.5,2.5,0,0,0,1.48,1.6c.178,0,.355.059.533.059a2.687,2.687,0,0,0,2.249-1.539A7.905,7.905,0,0,0,4.86,54.1l.118-.3a55.451,55.451,0,0,0,.645-6.073c.144-2.22.142-5.731.3-8.494.137-2.457.188-3.455.3-6.237.119-3.026-.053-6.31,0-9.148.1-5.471.339-9.434.359-9.826.118-1.953,0-3.966.118-5.919a13.906,13.906,0,0,0,.118-3.492A21.413,21.413,0,0,0,5.807,1.3a2.66,2.66,0,0,0-.355-.71A2,2,0,0,0,4.328.059,1.007,1.007,0,0,0,3.913,0Z" transform="translate(0 4.871) rotate(-45)" fill="#f6f6f6"/>
</svg>
